quartus/part1/Projetos Quartus/simulation/qsim/trabalho2.msim.vcd
$comment
	File created using the following command:
		vcd file trabalho2.msim.vcd -direction
$end
$date
	Tue Sep 10 17:04:03 2024
$end
$version
	ModelSim Version 10.5b
$end
$timescale
	1ps
$end

$scope module contador8b_vlg_vec_tst $end
$var reg 1 ! CLE_AR $end
$var reg 1 " CLO_CK $end
$var reg 1 # ENA_BLE $end
$var wire 1 $ Q_0 $end
$var wire 1 % Q_1 $end
$var wire 1 & Q_2 $end
$var wire 1 ' Q_3 $end
$var wire 1 ( Q_4 $end
$var wire 1 ) Q_5 $end
$var wire 1 * Q_6 $end
$var wire 1 + Q_7 $end

$scope module i1 $end
$var wire 1 , gnd $end
$var wire 1 - vcc $end
$var wire 1 . unknown $end
$var tri1 1 / devclrn $end
$var tri1 1 0 devpor $end
$var tri1 1 1 devoe $end
$var wire 1 2 Q_0~output_o $end
$var wire 1 3 Q_1~output_o $end
$var wire 1 4 Q_2~output_o $end
$var wire 1 5 Q_3~output_o $end
$var wire 1 6 Q_4~output_o $end
$var wire 1 7 Q_5~output_o $end
$var wire 1 8 Q_6~output_o $end
$var wire 1 9 Q_7~output_o $end
$var wire 1 : CLO_CK~input_o $end
$var wire 1 ; CLO_CK~inputclkctrl_outclk $end
$var wire 1 < ENA_BLE~input_o $end
$var wire 1 = inst~0_combout $end
$var wire 1 > CLE_AR~input_o $end
$var wire 1 ? CLE_AR~inputclkctrl_outclk $end
$var wire 1 @ inst~q $end
$var wire 1 A inst1~0_combout $end
$var wire 1 B inst1~q $end
$var wire 1 C inst2~0_combout $end
$var wire 1 D inst2~q $end
$var wire 1 E inst6~combout $end
$var wire 1 F inst3~0_combout $end
$var wire 1 G inst3~q $end
$var wire 1 H inst8~0_combout $end
$var wire 1 I inst8~q $end
$var wire 1 J inst10~0_combout $end
$var wire 1 K inst10~q $end
$var wire 1 L inst11~combout $end
$var wire 1 M inst12~0_combout $end
$var wire 1 N inst12~q $end
$var wire 1 O inst14~0_combout $end
$var wire 1 P inst14~1_combout $end
$var wire 1 Q inst14~q $end
$upscope $end
$upscope $end
$enddefinitions $end
#0
$dumpvars
1!
0"
1#
0$
0%
0&
0'
0(
0)
0*
0+
0,
1-
x.
1/
10
11
02
03
04
05
06
07
08
09
0:
0;
1<
1=
1>
1?
0@
0A
0B
0C
0D
0E
0F
0G
0H
0I
0J
0K
0L
0M
0N
1O
0P
0Q
$end
#500
1"
1:
1;
1@
12
1$
1A
0=
#1000
0"
0:
0;
#1500
1"
1:
1;
1B
0@
02
13
1%
0$
1=
#2000
0"
0:
0;
#2500
1"
1:
1;
1@
12
1$
1C
0A
0=
#3000
0"
0:
0;
#3500
1"
1:
1;
1D
0B
0@
02
03
14
1&
0%
0$
1=
#4000
0"
0:
0;
#4500
1"
1:
1;
1@
12
1$
1A
0=
#5000
0"
0:
0;
#5500
1"
1:
1;
1B
0@
02
13
1%
0$
1=
#6000
0"
0:
0;
#6500
1"
1:
1;
1@
12
1E
1$
0C
0A
0=
1F
#7000
0"
0:
0;
#7500
1"
1:
1;
1G
0D
0B
0@
02
03
04
15
0E
1'
0&
0%
0$
1H
0F
1=
0H
1F
#8000
0"
0:
0;
#8500
1"
1:
1;
1@
12
1$
1A
0=
#9000
0"
0:
0;
#9500
1"
1:
1;
1B
0@
02
13
1%
0$
1=
#10000
0"
0:
0;
#10500
1"
1:
1;
1@
12
1$
1C
0A
0=
#11000
0"
0:
0;
#11500
1"
1:
1;
1D
0B
0@
02
03
14
1&
0%
0$
1=
#12000
0"
0:
0;
#12500
1"
1:
1;
1@
12
1$
1A
0=
#13000
0"
0:
0;
#13500
1"
1:
1;
1B
0@
02
13
1%
0$
1=
#14000
0"
0:
0;
#14500
1"
1:
1;
1@
12
1E
1$
0C
0A
0=
1H
0F
#15000
0"
0:
0;
#15500
1"
1:
1;
1I
0G
0D
0B
0@
02
03
04
05
16
0E
1(
0'
0&
0%
0$
1F
1=
0F
#16000
0"
0:
0;
#16500
1"
1:
1;
1@
12
1$
1A
0=
#17000
0"
0:
0;
#17500
1"
1:
1;
1B
0@
02
13
1%
0$
1=
#18000
0"
0:
0;
#18500
1"
1:
1;
1@
12
1$
1C
0A
0=
#19000
0"
0:
0;
#19500
1"
1:
1;
1D
0B
0@
02
03
14
1&
0%
0$
1=
#20000
0"
0:
0;
#20500
1"
1:
1;
1@
12
1$
1A
0=
#21000
0"
0:
0;
#21500
1"
1:
1;
1B
0@
02
13
1%
0$
1=
#22000
0"
0:
0;
#22500
1"
1:
1;
1@
12
1E
1$
0C
0A
0=
1F
#23000
0"
0:
0;
#23500
1"
1:
1;
1G
0D
0B
0@
02
03
04
15
0E
1'
0&
0%
0$
1J
0H
0F
1=
0J
1H
1F
#24000
0"
0:
0;
#24500
1"
1:
1;
1@
12
1$
1A
0=
#25000
0"
0:
0;
#25500
1"
1:
1;
1B
0@
02
13
1%
0$
1=
#26000
0"
0:
0;
#26500
1"
1:
1;
1@
12
1$
1C
0A
0=
#27000
0"
0:
0;
#27500
1"
1:
1;
1D
0B
0@
02
03
14
1&
0%
0$
1=
#28000
0"
0:
0;
#28500
1"
1:
1;
1@
12
1$
1A
0=
#29000
0"
0:
0;
#29500
1"
1:
1;
1B
0@
02
13
1%
0$
1=
#30000
0"
0:
0;
#30500
1"
1:
1;
1@
12
1E
1$
0C
0A
0=
1J
0H
0F
#31000
0"
0:
0;
#31500
1"
1:
1;
1K
0I
0G
0D
0B
0@
02
03
04
05
06
17
0E
1)
0(
0'
0&
0%
0$
1F
1=
0F
#32000
0"
0:
0;
#32500
1"
1:
1;
1@
12
1$
1A
0=
#33000
0"
0:
0;
#33500
1"
1:
1;
1B
0@
02
13
1%
0$
1=
#34000
0"
0:
0;
#34500
1"
1:
1;
1@
12
1$
1C
0A
0=
#35000
0"
0:
0;
#35500
1"
1:
1;
1D
0B
0@
02
03
14
1&
0%
0$
1=
#36000
0"
0:
0;
#36500
1"
1:
1;
1@
12
1$
1A
0=
#37000
0"
0:
0;
#37500
1"
1:
1;
1B
0@
02
13
1%
0$
1=
#38000
0"
0:
0;
#38500
1"
1:
1;
1@
12
1E
1$
0C
0A
0=
1F
#39000
0"
0:
0;
#39500
1"
1:
1;
1G
0D
0B
0@
02
03
04
15
0E
1'
0&
0%
0$
1H
0F
1=
0H
1F
#40000
0"
0:
0;
#40500
1"
1:
1;
1@
12
1$
1A
0=
#41000
0"
0:
0;
#41500
1"
1:
1;
1B
0@
02
13
1%
0$
1=
#42000
0"
0:
0;
#42500
1"
1:
1;
1@
12
1$
1C
0A
0=
#43000
0"
0:
0;
#43500
1"
1:
1;
1D
0B
0@
02
03
14
1&
0%
0$
1=
#44000
0"
0:
0;
#44500
1"
1:
1;
1@
12
1$
1A
0=
#45000
0"
0:
0;
#45500
1"
1:
1;
1B
0@
02
13
1%
0$
1=
#46000
0"
0:
0;
#46500
1"
1:
1;
1@
12
1E
1$
0C
0A
0=
1H
0F
#47000
0"
0:
0;
#47500
1"
1:
1;
1I
0G
0D
0B
0@
02
03
04
05
16
0E
1(
0'
0&
0%
0$
1F
1=
0F
#48000
0"
0:
0;
#48500
1"
1:
1;
1@
12
1$
1A
0=
#49000
0"
0:
0;
#49500
1"
1:
1;
1B
0@
02
13
1%
0$
1=
#50000
0"
0:
0;
#50500
1"
1:
1;
1@
12
1$
1C
0A
0=
#51000
0"
0:
0;
#51500
1"
1:
1;
1D
0B
0@
02
03
14
1&
0%
0$
1=
#52000
0"
0:
0;
#52500
1"
1:
1;
1@
12
1$
1A
0=
#53000
0"
0:
0;
#53500
1"
1:
1;
1B
0@
02
13
1%
0$
1=
#54000
0"
0:
0;
#54500
1"
1:
1;
1@
12
1E
1$
0C
0A
0=
1F
#55000
0"
0:
0;
#55500
1"
1:
1;
1G
0D
0B
0@
02
03
04
15
0O
1L
0E
1'
0&
0%
0$
0J
0H
0F
1=
0L
1M
1J
1H
1F
0M
#56000
0"
0:
0;
#56500
1"
1:
1;
1@
12
1$
1A
0=
#57000
0"
0:
0;
#57500
1"
1:
1;
1B
0@
02
13
1%
0$
1=
#58000
0"
0:
0;
#58500
1"
1:
1;
1@
12
1$
1C
0A
0=
#59000
0"
0:
0;
#59500
1"
1:
1;
1D
0B
0@
02
03
14
1&
0%
0$
1=
#60000
0"
0:
0;
#60500
1"
1:
1;
1@
12
1$
1A
0=
#61000
0"
0:
0;
#61500
1"
1:
1;
1B
0@
02
13
1%
0$
1=
#62000
0"
0:
0;
#62500
1"
1:
1;
1@
12
1E
1$
0C
0A
0=
1L
0J
0H
0F
1M
#63000
0"
0:
0;
#63500
1"
1:
1;
1N
0K
0I
0G
0D
0B
0@
02
03
04
05
06
07
18
1O
0L
0E
1*
0)
0(
0'
0&
0%
0$
1P
0M
1F
1=
0P
1M
0F
#64000
0"
0:
0;
#64500
1"
1:
1;
1@
12
1$
1A
0=
#65000
0"
0:
0;
#65500
1"
1:
1;
1B
0@
02
13
1%
0$
1=
#66000
0"
0:
0;
#66500
1"
1:
1;
1@
12
1$
1C
0A
0=
#67000
0"
0:
0;
#67500
1"
1:
1;
1D
0B
0@
02
03
14
1&
0%
0$
1=
#68000
0"
0:
0;
#68500
1"
1:
1;
1@
12
1$
1A
0=
#69000
0"
0:
0;
#69500
1"
1:
1;
1B
0@
02
13
1%
0$
1=
#70000
0"
0:
0;
#70500
1"
1:
1;
1@
12
1E
1$
0C
0A
0=
1F
#71000
0"
0:
0;
#71500
1"
1:
1;
1G
0D
0B
0@
02
03
04
15
0E
1'
0&
0%
0$
1H
0F
1=
0H
1F
#72000
0"
0:
0;
#72500
1"
1:
1;
1@
12
1$
1A
0=
#73000
0"
0:
0;
#73500
1"
1:
1;
1B
0@
02
13
1%
0$
1=
#74000
0"
0:
0;
#74500
1"
1:
1;
1@
12
1$
1C
0A
0=
#75000
0"
0:
0;
#75500
1"
1:
1;
1D
0B
0@
02
03
14
1&
0%
0$
1=
#76000
0"
0:
0;
#76500
1"
1:
1;
1@
12
1$
1A
0=
#77000
0"
0:
0;
#77500
1"
1:
1;
1B
0@
02
13
1%
0$
1=
#78000
0"
0:
0;
#78500
1"
1:
1;
1@
12
1E
1$
0C
0A
0=
1H
0F
#79000
0"
0:
0;
#79500
1"
1:
1;
1I
0G
0D
0B
0@
02
03
04
05
16
0E
1(
0'
0&
0%
0$
1F
1=
0F
#80000
0"
0:
0;
#80500
1"
1:
1;
1@
12
1$
1A
0=
#81000
0"
0:
0;
#81500
1"
1:
1;
1B
0@
02
13
1%
0$
1=
#82000
0"
0:
0;
#82500
1"
1:
1;
1@
12
1$
1C
0A
0=
#83000
0"
0:
0;
#83500
1"
1:
1;
1D
0B
0@
02
03
14
1&
0%
0$
1=
#84000
0"
0:
0;
#84500
1"
1:
1;
1@
12
1$
1A
0=
#85000
0"
0:
0;
#85500
1"
1:
1;
1B
0@
02
13
1%
0$
1=
#86000
0"
0:
0;
#86500
1"
1:
1;
1@
12
1E
1$
0C
0A
0=
1F
#87000
0"
0:
0;
#87500
1"
1:
1;
1G
0D
0B
0@
02
03
04
15
0E
1'
0&
0%
0$
1J
0H
0F
1=
0J
1H
1F
#88000
0"
0:
0;
#88500
1"
1:
1;
1@
12
1$
1A
0=
#89000
0"
0:
0;
#89500
1"
1:
1;
1B
0@
02
13
1%
0$
1=
#90000
0"
0:
0;
#90500
1"
1:
1;
1@
12
1$
1C
0A
0=
#91000
0"
0:
0;
#91500
1"
1:
1;
1D
0B
0@
02
03
14
1&
0%
0$
1=
#92000
0"
0:
0;
#92500
1"
1:
1;
1@
12
1$
1A
0=
#93000
0"
0:
0;
#93500
1"
1:
1;
1B
0@
02
13
1%
0$
1=
#94000
0"
0:
0;
#94500
1"
1:
1;
1@
12
1E
1$
0C
0A
0=
1J
0H
0F
#95000
0"
0:
0;
#95500
1"
1:
1;
1K
0I
0G
0D
0B
0@
02
03
04
05
06
17
0E
1)
0(
0'
0&
0%
0$
1F
1=
0F
#96000
0"
0:
0;
#96500
1"
1:
1;
1@
12
1$
1A
0=
#97000
0"
0:
0;
#97500
1"
1:
1;
1B
0@
02
13
1%
0$
1=
#98000
0"
0:
0;
#98500
1"
1:
1;
1@
12
1$
1C
0A
0=
#99000
0"
0:
0;
#99500
1"
1:
1;
1D
0B
0@
02
03
14
1&
0%
0$
1=
#100000
0"
0:
0;
#100500
1"
1:
1;
1@
12
1$
1A
0=
#101000
0"
0:
0;
#101500
1"
1:
1;
1B
0@
02
13
1%
0$
1=
#102000
0"
0:
0;
#102500
1"
1:
1;
1@
12
1E
1$
0C
0A
0=
1F
#103000
0"
0:
0;
#103500
1"
1:
1;
1G
0D
0B
0@
02
03
04
15
0E
1'
0&
0%
0$
1H
0F
1=
0H
1F
#104000
0"
0:
0;
#104500
1"
1:
1;
1@
12
1$
1A
0=
#105000
0"
0:
0;
#105500
1"
1:
1;
1B
0@
02
13
1%
0$
1=
#106000
0"
0:
0;
#106500
1"
1:
1;
1@
12
1$
1C
0A
0=
#107000
0"
0:
0;
#107500
1"
1:
1;
1D
0B
0@
02
03
14
1&
0%
0$
1=
#108000
0"
0:
0;
#108500
1"
1:
1;
1@
12
1$
1A
0=
#109000
0"
0:
0;
#109500
1"
1:
1;
1B
0@
02
13
1%
0$
1=
#110000
0"
0:
0;
#110500
1"
1:
1;
1@
12
1E
1$
0C
0A
0=
1H
0F
#111000
0"
0:
0;
#111500
1"
1:
1;
1I
0G
0D
0B
0@
02
03
04
05
16
0E
1(
0'
0&
0%
0$
1F
1=
0F
#112000
0"
0:
0;
#112500
1"
1:
1;
1@
12
1$
1A
0=
#113000
0"
0:
0;
#113500
1"
1:
1;
1B
0@
02
13
1%
0$
1=
#114000
0"
0:
0;
#114500
1"
1:
1;
1@
12
1$
1C
0A
0=
#115000
0"
0:
0;
#115500
1"
1:
1;
1D
0B
0@
02
03
14
1&
0%
0$
1=
#116000
0"
0:
0;
#116500
1"
1:
1;
1@
12
1$
1A
0=
#117000
0"
0:
0;
#117500
1"
1:
1;
1B
0@
02
13
1%
0$
1=
#118000
0"
0:
0;
#118500
1"
1:
1;
1@
12
1E
1$
0C
0A
0=
1F
#119000
0"
0:
0;
#119500
1"
1:
1;
1G
0D
0B
0@
02
03
04
15
0O
1L
0E
1'
0&
0%
0$
0J
0H
0F
1=
0L
0M
1J
1H
1F
1M
#120000
0"
0:
0;
#120500
1"
1:
1;
1@
12
1$
1A
0=
#121000
0"
0:
0;
#121500
1"
1:
1;
1B
0@
02
13
1%
0$
1=
#122000
0"
0:
0;
#122500
1"
1:
1;
1@
12
1$
1C
0A
0=
#123000
0"
0:
0;
#123500
1"
1:
1;
1D
0B
0@
02
03
14
1&
0%
0$
1=
#124000
0"
0:
0;
#124500
1"
1:
1;
1@
12
1$
1A
0=
#125000
0"
0:
0;
#125500
1"
1:
1;
1B
0@
02
13
1%
0$
1=
#126000
0"
0:
0;
#126500
1"
1:
1;
1@
12
1E
1$
0C
0A
0=
1L
1P
0J
0H
0F
0M
#127000
0"
0:
0;
#127500
1"
1:
1;
1Q
0N
0K
0I
0G
0D
0B
0@
02
03
04
05
06
07
08
19
1O
0L
0E
1+
0*
0)
0(
0'
0&
0%
0$
1M
1F
1=
0M
0F
#128000
0"
0:
0;
#128500
1"
1:
1;
1@
12
1$
1A
0=
#129000
0"
0:
0;
#129500
1"
1:
1;
1B
0@
02
13
1%
0$
1=
#130000
0"
0:
0;
#130500
1"
1:
1;
1@
12
1$
1C
0A
0=
#131000
0"
0:
0;
#131500
1"
1:
1;
1D
0B
0@
02
03
14
1&
0%
0$
1=
#132000
0"
0:
0;
#132500
1"
1:
1;
1@
12
1$
1A
0=
#133000
0"
0:
0;
#133500
1"
1:
1;
1B
0@
02
13
1%
0$
1=
#134000
0"
0:
0;
#134500
1"
1:
1;
1@
12
1E
1$
0C
0A
0=
1F
#135000
0"
0:
0;
#135500
1"
1:
1;
1G
0D
0B
0@
02
03
04
15
0E
1'
0&
0%
0$
1H
0F
1=
0H
1F
#136000
0"
0:
0;
#136500
1"
1:
1;
1@
12
1$
1A
0=
#137000
0"
0:
0;
#137500
1"
1:
1;
1B
0@
02
13
1%
0$
1=
#138000
0"
0:
0;
#138500
1"
1:
1;
1@
12
1$
1C
0A
0=
#139000
0"
0:
0;
#139500
1"
1:
1;
1D
0B
0@
02
03
14
1&
0%
0$
1=
#140000
0"
0:
0;
#140500
1"
1:
1;
1@
12
1$
1A
0=
#141000
0"
0:
0;
#141500
1"
1:
1;
1B
0@
02
13
1%
0$
1=
#142000
0"
0:
0;
#142500
1"
1:
1;
1@
12
1E
1$
0C
0A
0=
1H
0F
#143000
0"
0:
0;
#143500
1"
1:
1;
1I
0G
0D
0B
0@
02
03
04
05
16
0E
1(
0'
0&
0%
0$
1F
1=
0F
#144000
0"
0:
0;
#144500
1"
1:
1;
1@
12
1$
1A
0=
#145000
0"
0:
0;
#145500
1"
1:
1;
1B
0@
02
13
1%
0$
1=
#146000
0"
0:
0;
#146500
1"
1:
1;
1@
12
1$
1C
0A
0=
#147000
0"
0:
0;
#147500
1"
1:
1;
1D
0B
0@
02
03
14
1&
0%
0$
1=
#148000
0"
0:
0;
#148500
1"
1:
1;
1@
12
1$
1A
0=
#149000
0"
0:
0;
#149500
1"
1:
1;
1B
0@
02
13
1%
0$
1=
#150000
0"
0:
0;
#150500
1"
1:
1;
1@
12
1E
1$
0C
0A
0=
1F
#151000
0"
0:
0;
#151500
1"
1:
1;
1G
0D
0B
0@
02
03
04
15
0E
1'
0&
0%
0$
1J
0H
0F
1=
0J
1H
1F
#152000
0"
0:
0;
#152500
1"
1:
1;
1@
12
1$
1A
0=
#153000
0"
0:
0;
#153500
1"
1:
1;
1B
0@
02
13
1%
0$
1=
#154000
0"
0:
0;
#154500
1"
1:
1;
1@
12
1$
1C
0A
0=
#155000
0"
0:
0;
#155500
1"
1:
1;
1D
0B
0@
02
03
14
1&
0%
0$
1=
#156000
0"
0:
0;
#156500
1"
1:
1;
1@
12
1$
1A
0=
#157000
0"
0:
0;
#157500
1"
1:
1;
1B
0@
02
13
1%
0$
1=
#158000
0"
0:
0;
#158500
1"
1:
1;
1@
12
1E
1$
0C
0A
0=
1J
0H
0F
#159000
0"
0:
0;
#159500
1"
1:
1;
1K
0I
0G
0D
0B
0@
02
03
04
05
06
17
0E
1)
0(
0'
0&
0%
0$
1F
1=
0F
#160000
0"
0:
0;
#160500
1"
1:
1;
1@
12
1$
1A
0=
#161000
0"
0:
0;
#161500
1"
1:
1;
1B
0@
02
13
1%
0$
1=
#162000
0"
0:
0;
#162500
1"
1:
1;
1@
12
1$
1C
0A
0=
#163000
0"
0:
0;
#163500
1"
1:
1;
1D
0B
0@
02
03
14
1&
0%
0$
1=
#164000
0"
0:
0;
#164500
1"
1:
1;
1@
12
1$
1A
0=
#165000
0"
0:
0;
#165500
1"
1:
1;
1B
0@
02
13
1%
0$
1=
#166000
0"
0:
0;
#166500
1"
1:
1;
1@
12
1E
1$
0C
0A
0=
1F
#167000
0"
0:
0;
#167500
1"
1:
1;
1G
0D
0B
0@
02
03
04
15
0E
1'
0&
0%
0$
1H
0F
1=
0H
1F
#168000
0"
0:
0;
#168500
1"
1:
1;
1@
12
1$
1A
0=
#169000
0"
0:
0;
#169500
1"
1:
1;
1B
0@
02
13
1%
0$
1=
#170000
0"
0:
0;
#170500
1"
1:
1;
1@
12
1$
1C
0A
0=
#171000
0"
0:
0;
#171500
1"
1:
1;
1D
0B
0@
02
03
14
1&
0%
0$
1=
#172000
0"
0:
0;
#172500
1"
1:
1;
1@
12
1$
1A
0=
#173000
0"
0:
0;
#173500
1"
1:
1;
1B
0@
02
13
1%
0$
1=
#174000
0"
0:
0;
#174500
1"
1:
1;
1@
12
1E
1$
0C
0A
0=
1H
0F
#175000
0"
0:
0;
#175500
1"
1:
1;
1I
0G
0D
0B
0@
02
03
04
05
16
0E
1(
0'
0&
0%
0$
1F
1=
0F
#176000
0"
0:
0;
#176500
1"
1:
1;
1@
12
1$
1A
0=
#177000
0"
0:
0;
#177500
1"
1:
1;
1B
0@
02
13
1%
0$
1=
#178000
0"
0:
0;
#178500
1"
1:
1;
1@
12
1$
1C
0A
0=
#179000
0"
0:
0;
#179500
1"
1:
1;
1D
0B
0@
02
03
14
1&
0%
0$
1=
#180000
0"
0:
0;
#180500
1"
1:
1;
1@
12
1$
1A
0=
#181000
0"
0:
0;
#181500
1"
1:
1;
1B
0@
02
13
1%
0$
1=
#182000
0"
0:
0;
#182500
1"
1:
1;
1@
12
1E
1$
0C
0A
0=
1F
#183000
0"
0:
0;
#183500
1"
1:
1;
1G
0D
0B
0@
02
03
04
15
0O
1L
0E
1'
0&
0%
0$
0J
0H
0F
1=
0L
1M
1J
1H
1F
0M
#184000
0"
0:
0;
#184500
1"
1:
1;
1@
12
1$
1A
0=
#185000
0"
0:
0;
#185500
1"
1:
1;
1B
0@
02
13
1%
0$
1=
#186000
0"
0:
0;
#186500
1"
1:
1;
1@
12
1$
1C
0A
0=
#187000
0"
0:
0;
#187500
1"
1:
1;
1D
0B
0@
02
03
14
1&
0%
0$
1=
#188000
0"
0:
0;
#188500
1"
1:
1;
1@
12
1$
1A
0=
#189000
0"
0:
0;
#189500
1"
1:
1;
1B
0@
02
13
1%
0$
1=
#190000
0"
0:
0;
#190500
1"
1:
1;
1@
12
1E
1$
0C
0A
0=
1L
0J
0H
0F
1M
#191000
0"
0:
0;
#191500
1"
1:
1;
1N
0K
0I
0G
0D
0B
0@
02
03
04
05
06
07
18
1O
0L
0E
1*
0)
0(
0'
0&
0%
0$
0P
0M
1F
1=
1P
1M
0F
#192000
0"
0:
0;
#192500
1"
1:
1;
1@
12
1$
1A
0=
#193000
0"
0:
0;
#193500
1"
1:
1;
1B
0@
02
13
1%
0$
1=
#194000
0"
0:
0;
#194500
1"
1:
1;
1@
12
1$
1C
0A
0=
#195000
0"
0:
0;
#195500
1"
1:
1;
1D
0B
0@
02
03
14
1&
0%
0$
1=
#196000
0"
0:
0;
#196500
1"
1:
1;
1@
12
1$
1A
0=
#197000
0"
0:
0;
#197500
1"
1:
1;
1B
0@
02
13
1%
0$
1=
#198000
0"
0:
0;
#198500
1"
1:
1;
1@
12
1E
1$
0C
0A
0=
1F
#199000
0"
0:
0;
#199500
1"
1:
1;
1G
0D
0B
0@
02
03
04
15
0E
1'
0&
0%
0$
1H
0F
1=
0H
1F
#200000
0"
0:
0;
#200500
1"
1:
1;
1@
12
1$
1A
0=
#201000
0"
0:
0;
#201500
1"
1:
1;
1B
0@
02
13
1%
0$
1=
#202000
0"
0:
0;
#202500
1"
1:
1;
1@
12
1$
1C
0A
0=
#203000
0"
0:
0;
#203500
1"
1:
1;
1D
0B
0@
02
03
14
1&
0%
0$
1=
#204000
0"
0:
0;
#204500
1"
1:
1;
1@
12
1$
1A
0=
#205000
0"
0:
0;
#205500
1"
1:
1;
1B
0@
02
13
1%
0$
1=
#206000
0"
0:
0;
#206500
1"
1:
1;
1@
12
1E
1$
0C
0A
0=
1H
0F
#207000
0"
0:
0;
#207500
1"
1:
1;
1I
0G
0D
0B
0@
02
03
04
05
16
0E
1(
0'
0&
0%
0$
1F
1=
0F
#208000
0"
0:
0;
#208500
1"
1:
1;
1@
12
1$
1A
0=
#209000
0"
0:
0;
#209500
1"
1:
1;
1B
0@
02
13
1%
0$
1=
#210000
0"
0:
0;
#210500
1"
1:
1;
1@
12
1$
1C
0A
0=
#211000
0"
0:
0;
#211500
1"
1:
1;
1D
0B
0@
02
03
14
1&
0%
0$
1=
#212000
0"
0:
0;
#212500
1"
1:
1;
1@
12
1$
1A
0=
#213000
0"
0:
0;
#213500
1"
1:
1;
1B
0@
02
13
1%
0$
1=
#214000
0"
0:
0;
#214500
1"
1:
1;
1@
12
1E
1$
0C
0A
0=
1F
#215000
0"
0:
0;
#215500
1"
1:
1;
1G
0D
0B
0@
02
03
04
15
0E
1'
0&
0%
0$
1J
0H
0F
1=
0J
1H
1F
#216000
0"
0:
0;
#216500
1"
1:
1;
1@
12
1$
1A
0=
#217000
0"
0:
0;
#217500
1"
1:
1;
1B
0@
02
13
1%
0$
1=
#218000
0"
0:
0;
#218500
1"
1:
1;
1@
12
1$
1C
0A
0=
#219000
0"
0:
0;
#219500
1"
1:
1;
1D
0B
0@
02
03
14
1&
0%
0$
1=
#220000
0"
0:
0;
#220500
1"
1:
1;
1@
12
1$
1A
0=
#221000
0"
0:
0;
#221500
1"
1:
1;
1B
0@
02
13
1%
0$
1=
#222000
0"
0:
0;
#222500
1"
1:
1;
1@
12
1E
1$
0C
0A
0=
1J
0H
0F
#223000
0"
0:
0;
#223500
1"
1:
1;
1K
0I
0G
0D
0B
0@
02
03
04
05
06
17
0E
1)
0(
0'
0&
0%
0$
1F
1=
0F
#224000
0"
0:
0;
#224500
1"
1:
1;
1@
12
1$
1A
0=
#225000
0"
0:
0;
#225500
1"
1:
1;
1B
0@
02
13
1%
0$
1=
#226000
0"
0:
0;
#226500
1"
1:
1;
1@
12
1$
1C
0A
0=
#227000
0"
0:
0;
#227500
1"
1:
1;
1D
0B
0@
02
03
14
1&
0%
0$
1=
#228000
0"
0:
0;
#228500
1"
1:
1;
1@
12
1$
1A
0=
#229000
0"
0:
0;
#229500
1"
1:
1;
1B
0@
02
13
1%
0$
1=
#230000
0"
0:
0;
#230500
1"
1:
1;
1@
12
1E
1$
0C
0A
0=
1F
#231000
0"
0:
0;
#231500
1"
1:
1;
1G
0D
0B
0@
02
03
04
15
0E
1'
0&
0%
0$
1H
0F
1=
0H
1F
#232000
0"
0:
0;
#232500
1"
1:
1;
1@
12
1$
1A
0=
#233000
0"
0:
0;
#233500
1"
1:
1;
1B
0@
02
13
1%
0$
1=
#234000
0"
0:
0;
#234500
1"
1:
1;
1@
12
1$
1C
0A
0=
#235000
0"
0:
0;
#235500
1"
1:
1;
1D
0B
0@
02
03
14
1&
0%
0$
1=
#236000
0"
0:
0;
#236500
1"
1:
1;
1@
12
1$
1A
0=
#237000
0"
0:
0;
#237500
1"
1:
1;
1B
0@
02
13
1%
0$
1=
#238000
0"
0:
0;
#238500
1"
1:
1;
1@
12
1E
1$
0C
0A
0=
1H
0F
#239000
0"
0:
0;
#239500
1"
1:
1;
1I
0G
0D
0B
0@
02
03
04
05
16
0E
1(
0'
0&
0%
0$
1F
1=
0F
#240000
0"
0:
0;
#240500
1"
1:
1;
1@
12
1$
1A
0=
#241000
0"
0:
0;
#241500
1"
1:
1;
1B
0@
02
13
1%
0$
1=
#242000
0"
0:
0;
#242500
1"
1:
1;
1@
12
1$
1C
0A
0=
#243000
0"
0:
0;
#243500
1"
1:
1;
1D
0B
0@
02
03
14
1&
0%
0$
1=
#244000
0"
0:
0;
#244500
1"
1:
1;
1@
12
1$
1A
0=
#245000
0"
0:
0;
#245500
1"
1:
1;
1B
0@
02
13
1%
0$
1=
#246000
0"
0:
0;
#246500
1"
1:
1;
1@
12
1E
1$
0C
0A
0=
1F
#247000
0"
0:
0;
#247500
1"
1:
1;
1G
0D
0B
0@
02
03
04
15
0O
1L
0E
1'
0&
0%
0$
0J
0H
0F
1=
0L
0M
1J
1H
1F
1M
#248000
0"
0:
0;
#248500
1"
1:
1;
1@
12
1$
1A
0=
#249000
0"
0:
0;
#249500
1"
1:
1;
1B
0@
02
13
1%
0$
1=
#250000
0"
0:
0;
#250500
1"
1:
1;
1@
12
1$
1C
0A
0=
#251000
0"
0:
0;
#251500
1"
1:
1;
1D
0B
0@
02
03
14
1&
0%
0$
1=
#252000
0"
0:
0;
#252500
1"
1:
1;
1@
12
1$
1A
0=
#253000
0"
0:
0;
#253500
1"
1:
1;
1B
0@
02
13
1%
0$
1=
#254000
0"
0:
0;
#254500
1"
1:
1;
1@
12
1E
1$
0C
0A
0=
1L
0P
0J
0H
0F
0M
#255000
0"
0:
0;
#255500
1"
1:
1;
0Q
0N
0K
0I
0G
0D
0B
0@
02
03
04
05
06
07
08
09
1O
0L
0E
0+
0*
0)
0(
0'
0&
0%
0$
1M
1F
1=
0M
0F
#256000
0"
0:
0;
#256500
1"
1:
1;
1@
12
1$
1A
0=
#257000
0"
0:
0;
#257500
1"
1:
1;
1B
0@
02
13
1%
0$
1=
#258000
0"
0:
0;
#258500
1"
1:
1;
1@
12
1$
1C
0A
0=
#259000
0"
0:
0;
#259500
1"
1:
1;
1D
0B
0@
02
03
14
1&
0%
0$
1=
#260000
0"
0:
0;
#260500
1"
1:
1;
1@
12
1$
1A
0=
#261000
0"
0:
0;
#261500
1"
1:
1;
1B
0@
02
13
1%
0$
1=
#262000
0"
0:
0;
#262500
1"
1:
1;
1@
12
1E
1$
0C
0A
0=
1F
#263000
0"
0:
0;
#263500
1"
1:
1;
1G
0D
0B
0@
02
03
04
15
0E
1'
0&
0%
0$
1H
0F
1=
0H
1F
#264000
0"
0:
0;
#264500
1"
1:
1;
1@
12
1$
1A
0=
#265000
0"
0:
0;
#265500
1"
1:
1;
1B
0@
02
13
1%
0$
1=
#266000
0"
0:
0;
#266500
1"
1:
1;
1@
12
1$
1C
0A
0=
#267000
0"
0:
0;
#267500
1"
1:
1;
1D
0B
0@
02
03
14
1&
0%
0$
1=
#268000
0"
0:
0;
#268500
1"
1:
1;
1@
12
1$
1A
0=
#269000
0"
0:
0;
#269500
1"
1:
1;
1B
0@
02
13
1%
0$
1=
#270000
0"
0:
0;
#270500
1"
1:
1;
1@
12
1E
1$
0C
0A
0=
1H
0F
#271000
0"
0:
0;
#271500
1"
1:
1;
1I
0G
0D
0B
0@
02
03
04
05
16
0E
1(
0'
0&
0%
0$
1F
1=
0F
#272000
0"
0:
0;
#272500
1"
1:
1;
1@
12
1$
1A
0=
#273000
0"
0:
0;
